{"1": {
 "calculator": "emt",
 "calculator_parameters": {},
 "cell": [[0.0, 2.025, 2.025], [2.025, 0.0, 2.025], [2.025, 2.025, 0.0]],
 "ctime": 18.87109852884979,
 "energy": -0.001502047586230404,
 "forces": [[0.0, 0.0, 0.0]],
 "key_value_pairs": {"atoms_hash": "2563dcb46d75f147ca70ffd191c8020377683476", "calc_hash": "3978f15121a636580bc0912a342f4e8fe0dd38fb", "is_results": true},
 "mtime": 18.87109852884979,
 "numbers": [13],
 "pbc": [true, true, true],
 "positions": [[0.0, 0.0, 0.0]],
 "unique_id": "4f7a46f6ceb56efed87c14916f75d4a4",
 "user": "knoop"},
"ids": [1],
"nextid": 2}
